"324;203","360;181","39","146/34426","5","180.71948190092874, 378.02263066558123, 74.83568304270122, 149.1973312660023, 74.83568304270122, ","125/52","14","101.07600000000001, 101.07600000000001, 202.10254435814429, 77.12406214487336, 77.12406214487336, 101.07600000000001, 101.07600000000001, 77.12406214487336, 77.12406214487336, 202.10254435814429, 77.12406214487336, 101.07600000000001, 170.41420422025294, 170.41420422025294, ","24/8817","7","40.81495666216217, 55.52121421125982, 74.83568304270122, 40.81495666216217, 74.83568304270122, 55.52121421125982, 40.81495666216217, "
"298;236","358;176","79","146/34426","3","40.81495666216217, 218.32716331761577, 40.81495666216217, ","125/52","2","143.40347085680156, 239.140772554004, ","24/8817","6","101.07600000000001, 55.52121421125982, 55.52121421125982, 55.52121421125982, 74.83568304270122, 40.81495666216217, "
"256;249","359;177","117","146/34426","5","149.1973312660023, 29.712315285660296, 180.71948190092874, 29.712315285660296, 40.81495666216217, ","125/52","9","202.10254435814429, 120.46934152999573, 101.07600000000001, 202.10254435814429, 120.46934152999573, 101.07600000000001, 202.10254435814429, 120.46934152999573, 101.07600000000001, ","24/8817","3","122.901652791358, 55.52121421125982, 149.1973312660023, "
"346;306","365;182","117","146/34426","9","55.52121421125982, 55.52121421125982, 101.07600000000001, 40.81495666216217, 55.52121421125982, 101.07600000000001, 55.52121421125982, 101.07600000000001, 55.52121421125982, ","125/52","5","77.12406214487336, 120.46934152999573, 77.12406214487336, 170.41420422025294, 101.07600000000001, ","24/8817","3","74.83568304270122, 74.83568304270122, 55.52121421125982, "
"186;298","237;120","174","146/34426","8","101.07600000000001, 101.07600000000001, 122.901652791358, 101.07600000000001, 122.901652791358, 122.901652791358, 101.07600000000001, 101.07600000000001, ","125/52","8","101.07600000000001, 59.07057119871762, 59.07057119871762, 101.07600000000001, 59.07057119871762, 101.07600000000001, 59.07057119871762, 59.07057119871762, ","24/8817","14","218.32716331761577, 74.83568304270122, 218.32716331761577, 218.32716331761577, 74.83568304270122, 180.71948190092874, 180.71948190092874, 74.83568304270122, 315.8131786557508, 74.83568304270122, 315.8131786557508, 149.1973312660023, 378.02263066558123, 74.83568304270122, "
"282;227","244;114","112","146/34426","4","74.83568304270122, 149.1973312660023, 149.1973312660023, 149.1973312660023, ","125/52","1","25.359640937509653, ","24/8817","10","55.52121421125982, 122.901652791358, 40.81495666216217, 55.52121421125982, 29.712315285660296, 29.712315285660296, 21.405831560130768, 29.712315285660296, 40.81495666216217, 29.712315285660296, "
"203;140","246;115","46","146/34426","2","218.32716331761577, 180.71948190092874, ","125/52","8","33.88709758022714, 44.91371071418636, 59.07057119871762, 77.12406214487336, 59.07057119871762, 59.07057119871762, 59.07057119871762, 59.07057119871762, ","24/8817","6","101.07600000000001, 218.32716331761577, 101.07600000000001, 149.1973312660023, 74.83568304270122, 180.71948190092874, "
"220;140","242;125","24","146/34426","1","262.9927091577368, ","125/52","5","77.12406214487336, 59.07057119871762, 77.12406214487336, 59.07057119871762, 59.07057119871762, ","24/8817","5","122.901652791358, 74.83568304270122, 149.1973312660023, 55.52121421125982, 149.1973312660023, "
"220;166","243;120","48","146/34426","3","218.32716331761577, 180.71948190092874, 536.3094160345407, ","125/52","6","44.91371071418636, 77.12406214487336, 59.07057119871762, 77.12406214487336, 59.07057119871762, 77.12406214487336, ","24/8817","1","74.83568304270122, "
"220;166","240;120","47","146/34426","12","180.71948190092874, 262.9927091577368, 149.1973312660023, 218.32716331761577, 149.1973312660023, 180.71948190092874, 149.1973312660023, 149.1973312660023, 180.71948190092874, 378.02263066558123, 180.71948190092874, 180.71948190092874, ","125/52","6","59.07057119871762, 77.12406214487336, 77.12406214487336, 59.07057119871762, 59.07057119871762, 77.12406214487336, ","24/8817","8","74.83568304270122, 74.83568304270122, 122.901652791358, 74.83568304270122, 122.901652791358, 55.52121421125982, 101.07600000000001, 122.901652791358, "
"220;166","239;117","48","146/34426","1","378.02263066558123, ","125/52","8","101.07600000000001, 59.07057119871762, 77.12406214487336, 59.07057119871762, 59.07057119871762, 77.12406214487336, 59.07057119871762, 59.07057119871762, ","24/8817","1","101.07600000000001, "
"166;227","212;163","73","146/34426","2","55.52121421125982, 122.901652791358, ","125/52","8","44.91371071418636, 33.88709758022714, 25.359640937509653, 33.88709758022714, 33.88709758022714, 25.359640937509653, 59.07057119871762, 44.91371071418636, ","24/8817","5","55.52121421125982, 101.07600000000001, 122.901652791358, 218.32716331761577, 180.71948190092874, "
"181;264","215;166","96","146/34426","6","55.52121421125982, 40.81495666216217, 55.52121421125982, 40.81495666216217, 55.52121421125982, 55.52121421125982, ","125/52","10","18.814528037496547, 44.91371071418636, 44.91371071418636, 18.814528037496547, 44.91371071418636, 44.91371071418636, 18.814528037496547, 33.88709758022714, 44.91371071418636, 18.814528037496547, ","24/8817","3","122.901652791358, 122.901652791358, 149.1973312660023, "
"166;186","212;163","48","146/34426","6","101.07600000000001, 55.52121421125982, 101.07600000000001, 122.901652791358, 180.71948190092874, 218.32716331761577, ","125/52","1","33.88709758022714, ","24/8817","4","101.07600000000001, 149.1973312660023, 74.83568304270122, 218.32716331761577, "
"220;264","213;165","93","146/34426","3","55.52121421125982, 55.52121421125982, 74.83568304270122, ","125/52","7","33.88709758022714, 59.07057119871762, 59.07057119871762, 25.359640937509653, 59.07057119871762, 25.359640937509653, 33.88709758022714, ","24/8817","16","149.1973312660023, 101.07600000000001, 122.901652791358, 180.71948190092874, 74.83568304270122, 122.901652791358, 218.32716331761577, 101.07600000000001, 101.07600000000001, 101.07600000000001, 101.07600000000001, 122.901652791358, 122.901652791358, 122.901652791358, 122.901652791358, 122.901652791358, "
"149;264","211;164","110","146/34426","17","74.83568304270122, 101.07600000000001, 55.52121421125982, 74.83568304270122, 101.07600000000001, 74.83568304270122, 74.83568304270122, 74.83568304270122, 55.52121421125982, 74.83568304270122, 55.52121421125982, 74.83568304270122, 74.83568304270122, 55.52121421125982, 74.83568304270122, 122.901652791358, 74.83568304270122, ","125/52","6","33.88709758022714, 25.359640937509653, 25.359640937509653, 33.88709758022714, 18.814528037496547, 25.359640937509653, ","24/8817","12","218.32716331761577, 884.4182381990784, 451.0052575551847, 262.9927091577368, 262.9927091577368, 536.3094160345407, 262.9927091577368, 378.02263066558123, 536.3094160345407, 378.02263066558123, 262.9927091577368, 378.02263066558123, "
"220;140","213;164","23","146/34426","7","262.9927091577368, 180.71948190092874, 101.07600000000001, 180.71948190092874, 29.712315285660296, 55.52121421125982, 218.32716331761577, ","125/52","3","77.12406214487336, 59.07057119871762, 77.12406214487336, ","24/8817","10","74.83568304270122, 180.71948190092874, 378.02263066558123, 55.52121421125982, 74.83568304270122, 40.81495666216217, 40.81495666216217, 122.901652791358, 40.81495666216217, 122.901652791358, "
"166;217","212;163","65","146/34426","6","149.1973312660023, 74.83568304270122, 74.83568304270122, 180.71948190092874, 74.83568304270122, 101.07600000000001, ","125/52","3","59.07057119871762, 59.07057119871762, 44.91371071418636, ","24/8817","5","74.83568304270122, 74.83568304270122, 122.901652791358, 451.0052575551847, 74.83568304270122, "
"366;346","332;242","102","146/34426","4","55.52121421125982, 74.83568304270122, 55.52121421125982, 55.52121421125982, ","125/52","2","239.140772554004, 143.40347085680156, ","24/8817","8","74.83568304270122, 55.52121421125982, 55.52121421125982, 40.81495666216217, 55.52121421125982, 55.52121421125982, 40.81495666216217, 74.83568304270122, "
"256;324","331;242","104","146/34426","4","55.52121421125982, 55.52121421125982, 40.81495666216217, 40.81495666216217, ","125/52","1","120.46934152999573, ","24/8817","5","149.1973312660023, 101.07600000000001, 149.1973312660023, 218.32716331761577, 101.07600000000001, "
"279;342","332;236","111","146/34426","1","40.81495666216217, ","125/52","10","77.12406214487336, 101.07600000000001, 120.46934152999573, 101.07600000000001, 143.40347085680156, 101.07600000000001, 101.07600000000001, 120.46934152999573, 101.07600000000001, 120.46934152999573, ","24/8817","4","101.07600000000001, 180.71948190092874, 55.52121421125982, 74.83568304270122, "
"298;324","330;241","82","146/34426","4","40.81495666216217, 55.52121421125982, 74.83568304270122, 55.52121421125982, ","125/52","7","101.07600000000001, 101.07600000000001, 120.46934152999573, 120.46934152999573, 101.07600000000001, 120.46934152999573, 120.46934152999573, ","24/8817","8","74.83568304270122, 122.901652791358, 55.52121421125982, 55.52121421125982, 101.07600000000001, 55.52121421125982, 74.83568304270122, 101.07600000000001, "
"324;328","332;238","84","146/34426","7","40.81495666216217, 40.81495666216217, 55.52121421125982, 55.52121421125982, 40.81495666216217, 40.81495666216217, 55.52121421125982, ","125/52","1","77.12406214487336, ","24/8817","2","40.81495666216217, 74.83568304270122, "
"346;246","333;246","12","146/34426","25","180.71948190092874, 149.1973312660023, 149.1973312660023, 55.52121421125982, 149.1973312660023, 149.1973312660023, 55.52121421125982, 149.1973312660023, 149.1973312660023, 180.71948190092874, 55.52121421125982, 149.1973312660023, 149.1973312660023, 55.52121421125982, 149.1973312660023, 122.901652791358, 55.52121421125982, 122.901652791358, 55.52121421125982, 180.71948190092874, 122.901652791358, 180.71948190092874, 55.52121421125982, 218.32716331761577, 180.71948190092874, ","125/52","3","101.07600000000001, 120.46934152999573, 120.46934152999573, ","24/8817","11","149.1973312660023, 149.1973312660023, 101.07600000000001, 55.52121421125982, 74.83568304270122, 55.52121421125982, 122.901652791358, 74.83568304270122, 21.405831560130768, 21.405831560130768, 29.712315285660296, "
"298;324","333;239","85","146/34426","7","40.81495666216217, 40.81495666216217, 55.52121421125982, 74.83568304270122, 40.81495666216217, 74.83568304270122, 122.901652791358, ","125/52","3","101.07600000000001, 101.07600000000001, 120.46934152999573, ","24/8817","1","74.83568304270122, "
"181;246","179;237","8","146/34426","6","101.07600000000001, 55.52121421125982, 74.83568304270122, 74.83568304270122, 40.81495666216217, 74.83568304270122, ","125/52","7","18.814528037496547, 18.814528037496547, 18.814528037496547, 18.814528037496547, 18.814528037496547, 18.814528037496547, 18.814528037496547, ","24/8817","21","149.1973312660023, 635.6625926297197, 55.52121421125982, 149.1973312660023, 55.52121421125982, 149.1973312660023, 149.1973312660023, 74.83568304270122, 149.1973312660023, 122.901652791358, 74.83568304270122, 122.901652791358, 149.1973312660023, 55.52121421125982, 149.1973312660023, 149.1973312660023, 149.1973312660023, 180.71948190092874, 55.52121421125982, 149.1973312660023, 55.52121421125982, "
"181;264","175;240","22","146/34426","10","40.81495666216217, 55.52121421125982, 55.52121421125982, 55.52121421125982, 55.52121421125982, 55.52121421125982, 55.52121421125982, 74.83568304270122, 74.83568304270122, 55.52121421125982, ","125/52","4","18.814528037496547, 25.359640937509653, 25.359640937509653, 13.831004191434307, ","24/8817","4","101.07600000000001, 55.52121421125982, 122.901652791358, 218.32716331761577, "
"181;264","183;238","24","146/34426","12","29.712315285660296, 40.81495666216217, 74.83568304270122, 40.81495666216217, 40.81495666216217, 74.83568304270122, 40.81495666216217, 55.52121421125982, 74.83568304270122, 55.52121421125982, 55.52121421125982, 101.07600000000001, ","125/52","4","13.831004191434307, 13.831004191434307, 13.831004191434307, 13.831004191434307, ","24/8817","6","55.52121421125982, 74.83568304270122, 122.901652791358, 74.83568304270122, 262.9927091577368, 74.83568304270122, "
"166;264","184;241","27","146/34426","16","55.52121421125982, 74.83568304270122, 55.52121421125982, 74.83568304270122, 55.52121421125982, 40.81495666216217, 55.52121421125982, 40.81495666216217, 40.81495666216217, 55.52121421125982, 55.52121421125982, 40.81495666216217, 74.83568304270122, 55.52121421125982, 40.81495666216217, 55.52121421125982, ","125/52","10","13.831004191434307, 13.831004191434307, 13.831004191434307, 18.814528037496547, 10.068641274196445, 13.831004191434307, 18.814528037496547, 13.831004191434307, 13.831004191434307, 18.814528037496547, ","24/8817","11","218.32716331761577, 180.71948190092874, 74.83568304270122, 122.901652791358, 74.83568304270122, 149.1973312660023, 262.9927091577368, 101.07600000000001, 149.1973312660023, 218.32716331761577, 122.901652791358, "
"166;264","181;239","27","146/34426","5","29.712315285660296, 55.52121421125982, 21.405831560130768, 29.712315285660296, 40.81495666216217, ","125/52","4","13.831004191434307, 10.068641274196445, 13.831004191434307, 18.814528037496547, ","24/8817","4","149.1973312660023, 122.901652791358, 180.71948190092874, 180.71948190092874, "
"166;264","181;237","28","146/34426","14","40.81495666216217, 29.712315285660296, 29.712315285660296, 29.712315285660296, 40.81495666216217, 55.52121421125982, 29.712315285660296, 55.52121421125982, 55.52121421125982, 29.712315285660296, 40.81495666216217, 55.52121421125982, 29.712315285660296, 29.712315285660296, ","125/52","8","18.814528037496547, 18.814528037496547, 18.814528037496547, 25.359640937509653, 18.814528037496547, 18.814528037496547, 18.814528037496547, 25.359640937509653, ","24/8817","11","262.9927091577368, 149.1973312660023, 262.9927091577368, 218.32716331761577, 149.1973312660023, 101.07600000000001, 149.1973312660023, 218.32716331761577, 101.07600000000001, 149.1973312660023, 122.901652791358, "
"181;264","175;243","19","146/34426","24","21.405831560130768, 29.712315285660296, 40.81495666216217, 40.81495666216217, 55.52121421125982, 29.712315285660296, 40.81495666216217, 40.81495666216217, 55.52121421125982, 29.712315285660296, 29.712315285660296, 40.81495666216217, 21.405831560130768, 29.712315285660296, 55.52121421125982, 29.712315285660296, 55.52121421125982, 21.405831560130768, 21.405831560130768, 21.405831560130768, 29.712315285660296, 40.81495666216217, 21.405831560130768, 21.405831560130768, ","125/52","18","18.814528037496547, 25.359640937509653, 18.814528037496547, 18.814528037496547, 33.88709758022714, 18.814528037496547, 25.359640937509653, 13.831004191434307, 18.814528037496547, 25.359640937509653, 13.831004191434307, 18.814528037496547, 18.814528037496547, 13.831004191434307, 13.831004191434307, 18.814528037496547, 13.831004191434307, 10.068641274196445, ","24/8817","7","122.901652791358, 74.83568304270122, 74.83568304270122, 74.83568304270122, 378.02263066558123, 55.52121421125982, 101.07600000000001, "
"149;264","181;240","37","146/34426","4","55.52121421125982, 29.712315285660296, 55.52121421125982, 55.52121421125982, ","125/52","4","25.359640937509653, 25.359640937509653, 18.814528037496547, 18.814528037496547, ","24/8817","5","315.8131786557508, 149.1973312660023, 218.32716331761577, 149.1973312660023, 262.9927091577368, "
"166;264","182;238","28","146/34426","8","40.81495666216217, 101.07600000000001, 40.81495666216217, 74.83568304270122, 29.712315285660296, 40.81495666216217, 55.52121421125982, 21.405831560130768, ","125/52","4","18.814528037496547, 25.359640937509653, 18.814528037496547, 25.359640937509653, ","24/8817","5","180.71948190092874, 180.71948190092874, 218.32716331761577, 149.1973312660023, 55.52121421125982, "
"203;173","184;390","204","146/34426","4","101.07600000000001, 262.9927091577368, 218.32716331761577, 180.71948190092874, ","125/52","2","143.40347085680156, 143.40347085680156, ","24/8817","3","122.901652791358, 55.52121421125982, 180.71948190092874, "
"236;229","182;386","156","146/34426","4","101.07600000000001, 122.901652791358, 122.901652791358, 451.0052575551847, ","125/52","8","143.40347085680156, 120.46934152999573, 170.41420422025294, 120.46934152999573, 170.41420422025294, 143.40347085680156, 120.46934152999573, 120.46934152999573, ","24/8817","6","74.83568304270122, 55.52121421125982, 149.1973312660023, 55.52121421125982, 149.1973312660023, 74.83568304270122, "
"346;246","181;390","206","146/34426","5","180.71948190092874, 74.83568304270122, 149.1973312660023, 101.07600000000001, 74.83568304270122, ","125/52","8","77.12406214487336, 101.07600000000001, 101.07600000000001, 101.07600000000001, 101.07600000000001, 239.140772554004, 120.46934152999573, 101.07600000000001, ","24/8817","11","40.81495666216217, 149.1973312660023, 55.52121421125982, 40.81495666216217, 55.52121421125982, 40.81495666216217, 122.901652791358, 40.81495666216217, 122.901652791358, 55.52121421125982, 122.901652791358, "
"287;186","182;388","213","146/34426","5","262.9927091577368, 122.901652791358, 122.901652791358, 262.9927091577368, 101.07600000000001, ","125/52","5","101.07600000000001, 77.12406214487336, 101.07600000000001, 101.07600000000001, 120.46934152999573, ","24/8817","7","55.52121421125982, 40.81495666216217, 122.901652791358, 40.81495666216217, 101.07600000000001, 55.52121421125982, 40.81495666216217, "
"366;227","184;389","228","146/34426","7","149.1973312660023, 101.07600000000001, 101.07600000000001, 180.71948190092874, 122.901652791358, 180.71948190092874, 122.901652791358, ","125/52","1","101.07600000000001, ","24/8817","1","55.52121421125982, "
"282;203","183;392","200","146/34426","2","122.901652791358, 101.07600000000001, ","125/52","8","101.07600000000001, 239.140772554004, 120.46934152999573, 101.07600000000001, 202.10254435814429, 120.46934152999573, 101.07600000000001, 120.46934152999573, ","24/8817","2","101.07600000000001, 55.52121421125982, "
"203;328","239;330","33","146/34426","1","40.81495666216217, ","125/52","1","59.07057119871762, ","24/8817","6","315.8131786557508, 262.9927091577368, 149.1973312660023, 180.71948190092874, 262.9927091577368, 149.1973312660023, "
"208;249","240;329","80","146/34426","24","74.83568304270122, 74.83568304270122, 74.83568304270122, 74.83568304270122, 74.83568304270122, 74.83568304270122, 74.83568304270122, 74.83568304270122, 74.83568304270122, 74.83568304270122, 122.901652791358, 74.83568304270122, 74.83568304270122, 122.901652791358, 74.83568304270122, 74.83568304270122, 74.83568304270122, 101.07600000000001, 74.83568304270122, 74.83568304270122, 55.52121421125982, 74.83568304270122, 55.52121421125982, 55.52121421125982, ","125/52","3","170.41420422025294, 101.07600000000001, 101.07600000000001, ","24/8817","11","262.9927091577368, 122.901652791358, 218.32716331761577, 149.1973312660023, 180.71948190092874, 378.02263066558123, 149.1973312660023, 149.1973312660023, 149.1973312660023, 180.71948190092874, 149.1973312660023, "
"246;346","243;332","13","146/34426","27","40.81495666216217, 74.83568304270122, 74.83568304270122, 21.405831560130768, 40.81495666216217, 101.07600000000001, 40.81495666216217, 74.83568304270122, 21.405831560130768, 29.712315285660296, 74.83568304270122, 21.405831560130768, 40.81495666216217, 15.251042646196803, 21.405831560130768, 21.405831560130768, 21.405831560130768, 40.81495666216217, 40.81495666216217, 40.81495666216217, 55.52121421125982, 40.81495666216217, 40.81495666216217, 55.52121421125982, 40.81495666216217, 40.81495666216217, 55.52121421125982, ","125/52","25","59.07057119871762, 59.07057119871762, 77.12406214487336, 59.07057119871762, 77.12406214487336, 44.91371071418636, 77.12406214487336, 59.07057119871762, 44.91371071418636, 77.12406214487336, 59.07057119871762, 77.12406214487336, 59.07057119871762, 59.07057119871762, 77.12406214487336, 33.88709758022714, 59.07057119871762, 77.12406214487336, 44.91371071418636, 59.07057119871762, 101.07600000000001, 59.07057119871762, 44.91371071418636, 101.07600000000001, 59.07057119871762, ","24/8817","11","74.83568304270122, 149.1973312660023, 122.901652791358, 122.901652791358, 74.83568304270122, 122.901652791358, 74.83568304270122, 74.83568304270122, 149.1973312660023, 101.07600000000001, 74.83568304270122, "
"268;324","240;331","26","146/34426","6","40.81495666216217, 55.52121421125982, 29.712315285660296, 40.81495666216217, 40.81495666216217, 55.52121421125982, ","125/52","4","59.07057119871762, 44.91371071418636, 101.07600000000001, 44.91371071418636, ","24/8817","1","101.07600000000001, "
"227;324","243;326","15","146/34426","2","55.52121421125982, 55.52121421125982, ","125/52","7","143.40347085680156, 44.91371071418636, 44.91371071418636, 143.40347085680156, 44.91371071418636, 44.91371071418636, 120.46934152999573, ","24/8817","1","149.1973312660023, "
"208;324","235;333","26","146/34426","10","29.712315285660296, 55.52121421125982, 40.81495666216217, 74.83568304270122, 74.83568304270122, 74.83568304270122, 55.52121421125982, 122.901652791358, 74.83568304270122, 55.52121421125982, ","125/52","2","143.40347085680156, 44.91371071418636, ","24/8817","10","262.9927091577368, 74.83568304270122, 315.8131786557508, 378.02263066558123, 74.83568304270122, 262.9927091577368, 262.9927091577368, 74.83568304270122, 262.9927091577368, 180.71948190092874, "
"279;366","243;329","48","146/34426","20","15.251042646196803, 40.81495666216217, 101.07600000000001, 15.251042646196803, 40.81495666216217, 101.07600000000001, 15.251042646196803, 40.81495666216217, 15.251042646196803, 55.52121421125982, 15.251042646196803, 29.712315285660296, 74.83568304270122, 21.405831560130768, 29.712315285660296, 55.52121421125982, 21.405831560130768, 29.712315285660296, 55.52121421125982, 29.712315285660296, ","125/52","22","77.12406214487336, 25.359640937509653, 77.12406214487336, 101.07600000000001, 25.359640937509653, 120.46934152999573, 143.40347085680156, 170.41420422025294, 143.40347085680156, 59.07057119871762, 120.46934152999573, 170.41420422025294, 143.40347085680156, 170.41420422025294, 143.40347085680156, 59.07057119871762, 170.41420422025294, 44.91371071418636, 202.10254435814429, 170.41420422025294, 59.07057119871762, 202.10254435814429, ","24/8817","20","122.901652791358, 149.1973312660023, 180.71948190092874, 149.1973312660023, 262.9927091577368, 149.1973312660023, 262.9927091577368, 149.1973312660023, 101.07600000000001, 378.02263066558123, 149.1973312660023, 378.02263066558123, 180.71948190092874, 122.901652791358, 378.02263066558123, 180.71948190092874, 180.71948190092874, 262.9927091577368, 149.1973312660023, 180.71948190092874, "
"203;225","240;329","103","146/34426","11","55.52121421125982, 149.1973312660023, 55.52121421125982, 55.52121421125982, 101.07600000000001, 218.32716331761577, 55.52121421125982, 262.9927091577368, 55.52121421125982, 149.1973312660023, 315.8131786557508, ","125/52","1","101.07600000000001, ","24/8817","11","536.3094160345407, 262.9927091577368, 218.32716331761577, 122.901652791358, 218.32716331761577, 218.32716331761577, 122.901652791358, 218.32716331761577, 218.32716331761577, 122.901652791358, 218.32716331761577, "
"186;298","245;334","64","146/34426","5","180.71948190092874, 315.8131786557508, 74.83568304270122, 122.901652791358, 122.901652791358, ","125/52","5","101.07600000000001, 33.88709758022714, 120.46934152999573, 33.88709758022714, 25.359640937509653, ","24/8817","4","451.0052575551847, 122.901652791358, 378.02263066558123, 378.02263066558123, "
"366;346","421;314","59","146/34426","10","29.712315285660296, 40.81495666216217, 29.712315285660296, 29.712315285660296, 262.9927091577368, 40.81495666216217, 40.81495666216217, 29.712315285660296, 262.9927091577368, 40.81495666216217, ","125/52","18","120.46934152999573, 143.40347085680156, 120.46934152999573, 120.46934152999573, 120.46934152999573, 120.46934152999573, 143.40347085680156, 120.46934152999573, 120.46934152999573, 120.46934152999573, 120.46934152999573, 143.40347085680156, 120.46934152999573, 120.46934152999573, 120.46934152999573, 120.46934152999573, 143.40347085680156, 120.46934152999573, ","24/8817","18","55.52121421125982, 122.901652791358, 55.52121421125982, 40.81495666216217, 101.07600000000001, 40.81495666216217, 74.83568304270122, 40.81495666216217, 40.81495666216217, 40.81495666216217, 101.07600000000001, 55.52121421125982, 40.81495666216217, 74.83568304270122, 55.52121421125982, 101.07600000000001, 55.52121421125982, 40.81495666216217, "
"298;324","421;311","115","146/34426","8","29.712315285660296, 55.52121421125982, 40.81495666216217, 55.52121421125982, 40.81495666216217, 74.83568304270122, 40.81495666216217, 40.81495666216217, ","125/52","7","101.07600000000001, 101.07600000000001, 101.07600000000001, 120.46934152999573, 101.07600000000001, 101.07600000000001, 120.46934152999573, ","24/8817","3","40.81495666216217, 180.71948190092874, 40.81495666216217, "
"366;306","420;315","50","146/34426","4","74.83568304270122, 74.83568304270122, 55.52121421125982, 40.81495666216217, ","125/52","1","120.46934152999573, ","24/8817","2","40.81495666216217, 40.81495666216217, "
"366;346","421;312","60","146/34426","5","55.52121421125982, 55.52121421125982, 55.52121421125982, 101.07600000000001, 55.52121421125982, ","125/52","7","120.46934152999573, 101.07600000000001, 120.46934152999573, 143.40347085680156, 120.46934152999573, 120.46934152999573, 120.46934152999573, ","24/8817","1","55.52121421125982, "
"366;346","425;313","63","146/34426","1","55.52121421125982, ","125/52","4","120.46934152999573, 120.46934152999573, 120.46934152999573, 120.46934152999573, ","24/8817","5","40.81495666216217, 262.9927091577368, 29.712315285660296, 40.81495666216217, 55.52121421125982, "
"366;346","421;317","58","146/34426","5","55.52121421125982, 55.52121421125982, 74.83568304270122, 55.52121421125982, 55.52121421125982, ","125/52","2","120.46934152999573, 120.46934152999573, ","24/8817","4","40.81495666216217, 55.52121421125982, 122.901652791358, 55.52121421125982, "
"366;346","423;312","62","146/34426","7","55.52121421125982, 101.07600000000001, 55.52121421125982, 55.52121421125982, 74.83568304270122, 55.52121421125982, 55.52121421125982, ","125/52","2","120.46934152999573, 120.46934152999573, ","24/8817","6","40.81495666216217, 74.83568304270122, 55.52121421125982, 40.81495666216217, 55.52121421125982, 74.83568304270122, "
"366;306","419;310","49","146/34426","1","55.52121421125982, ","125/52","2","143.40347085680156, 143.40347085680156, ","24/8817","2","29.712315285660296, 74.83568304270122, "
"387;264","420;315","56","146/34426","13","101.07600000000001, 101.07600000000001, 101.07600000000001, 55.52121421125982, 101.07600000000001, 101.07600000000001, 55.52121421125982, 122.901652791358, 74.83568304270122, 74.83568304270122, 74.83568304270122, 55.52121421125982, 55.52121421125982, ","125/52","17","120.46934152999573, 120.46934152999573, 120.46934152999573, 170.41420422025294, 120.46934152999573, 120.46934152999573, 170.41420422025294, 120.46934152999573, 120.46934152999573, 143.40347085680156, 120.46934152999573, 120.46934152999573, 101.07600000000001, 101.07600000000001, 120.46934152999573, 120.46934152999573, 101.07600000000001, ","24/8817","11","21.405831560130768, 21.405831560130768, 29.712315285660296, 21.405831560130768, 29.712315285660296, 262.9927091577368, 101.07600000000001, 10.737418240000006, 10.737418240000006, 40.81495666216217, 7.463751957429753, "
